{
	"defaultSeverity": "error",
	"extends": [
		"tslint:recommended"
	],
	"jsRules": {},
	"rules": {
		"array-type": [true, "generic"],
		"indent": [true, "tabs"],
		"object-literal-sort-keys": false,
		"trailing-comma": [true, {"multiline": "never", "singleline": "never"}],
		"ordered-imports": false,
		"variable-name": [true, "check-format", "allow-leading-underscore"]
	},
	"linterOptions": {
		"exclude": [
			"src/batches/**/*"
		]
	},
	"rulesDirectory": []
}
